Exploring the Relationship Between Gender, Race, and Violence Rates in Charlotte
…
## Rows: 156708 Columns: 10
## -- Column specification --------------------------------------------------------
## Delimiter: ","
## chr (5): ROW_TYPE, GEOGRAPHY, OFFENSE_DESCRIPTION, ATTRIBUTE, ATTRIBUTE_VALUE
## dbl (5): OBJECTID, GEOGRAPHY_ID, CALENDAR_YEAR, CALENDAR_MONTH, ATTRIBUTE_COUNT
## 
## i Use `spec()` to retrieve the full column specification for this data.
## i Specify the column types or set `show_col_types = FALSE` to quiet this message.

data.sub <- subset(violent.crime, ATTRIBUTE == "Victim Race/Ethnicity")

data.sub

## # A tibble: 24,485 x 10
##    OBJECTID ROW_TYPE         GEOGRAPHY GEOGRAPHY_ID CALENDAR_YEAR CALENDAR_MONTH
##       <dbl> <chr>            <chr>            <dbl>         <dbl>          <dbl>
##  1        1 CMPD Jurisdicti~ CMPD                 0          2022              3
##  2        2 CMPD Jurisdicti~ CMPD                 0          2022              3
##  3        3 CMPD Jurisdicti~ CMPD                 0          2022              3
##  4        4 CMPD Jurisdicti~ CMPD                 0          2022              3
##  5        5 CMPD Jurisdicti~ CMPD                 0          2022              3
##  6       39 Neighborhood Pr~ 100                100          2022              3
##  7       40 Neighborhood Pr~ 101                101          2022              3
##  8       53 Neighborhood Pr~ 103                103          2022              3
##  9       59 Neighborhood Pr~ 103                103          2022              3
## 10       60 Neighborhood Pr~ 103                103          2022              3
## # ... with 24,475 more rows, and 4 more variables: OFFENSE_DESCRIPTION <chr>,
## #   ATTRIBUTE <chr>, ATTRIBUTE_VALUE <chr>, ATTRIBUTE_COUNT <dbl>
…
#load the csv dataset
data.charges  <- read_csv("C:/Users/o/OneDrive/Documents/Task/meck-co-charges.csv")

## Rows: 184238 Columns: 12
## -- Column specification --------------------------------------------------------
## Delimiter: ","
## chr (8): Arrest_Datetime, Gender, txt_sentencing_class, txt_offense_type, tx...
## dbl (4): Arrest_Year, Arrest_Num, txt_offense_code, num_case_court
## 
## i Use `spec()` to retrieve the full column specification for this data.
## i Specify the column types or set `show_col_types = FALSE` to quiet this message.

data.charges

## # A tibble: 184,238 x 12
##    Arrest_Year Arrest_Datetime Arrest_Num Gender txt_offense_code
##          <dbl> <chr>                <dbl> <chr>             <dbl>
##  1        2014 1/1/2014 0:08      1598777 Male               3550
##  2        2014 1/1/2014 0:08      1598777 Male               4716
##  3        2014 1/1/2014 0:03      1598778 Male               4195
##  4        2014 1/1/2014 0:31      1598783 Male               4195
##  5        2014 1/1/2014 0:24      1598784 Male               4195
##  6        2014 1/1/2014 1:43      1598785 Male               1389
##  7        2014 1/1/2014 1:30      1598788 Female             5464
##  8        2014 1/1/2014 1:30      1598788 Female             5405
##  9        2014 1/1/2014 0:05      1598789 Male               8543
## 10        2014 1/1/2014 0:05      1598789 Male               2337
## # ... with 184,228 more rows, and 7 more variables: txt_sentencing_class <chr>,
## #   txt_offense_type <chr>, txt_offense_short_description <chr>,
## #   txt_process_status <chr>, txt_probable_cause <chr>, txt_warrant_type <chr>,
## #   num_case_court <dbl>
…
